Commenly-used Script - Jiang's Blog
…
R

colnames(df)

## [1] "dimension1" "dimension2" "measure1"   "measure2"

unique(df$Species)

## Warning: Unknown or uninitialised column: 'Species'.

## NULL

df %>% distinct(Species)

## # A tibble: 1,000 x 4
##    dimension1 dimension2 measure1 measure2
##    <chr>      <chr>         <int>    <int>
##  1 I          B                 9        9
##  2 II         C                10        5
##  3 II         B                 9        2
##  4 III        <NA>              5        4
##  5 <NA>       A                NA        9
##  6 III        A                 1       NA
##  7 III        B                 6        2
##  8 II         B                 1        4
##  9 II         C                 6        8
## 10 I          <NA>              5       10
## # ... with 990 more rows
…
